%TF.GenerationSoftware,Altium Limited,Altium Designer,20.0.12 (288)*%
G04 Layer_Color=16711935*
%FSLAX43Y43*%
%MOMM*%
%TF.FileFunction,Soldermask,Bot*%
%TF.Part,Single*%
G01*
G75*
%TA.AperFunction,ViaPad*%
%ADD60C,0.203*%
%TA.AperFunction,ComponentPad*%
%ADD61C,2.303*%
%ADD62C,1.953*%
%ADD63C,2.703*%
%ADD64C,3.503*%
%ADD65C,1.703*%
%ADD66R,1.703X1.703*%
%TA.AperFunction,ViaPad*%
%ADD67C,1.003*%
D60*
X63000Y91000D02*
D03*
X57000Y9000D02*
D03*
X12000Y91000D02*
D03*
Y9000D02*
D03*
D61*
X4530Y66795D02*
D03*
D62*
Y69395D02*
D03*
Y71935D02*
D03*
X7070Y68125D02*
D03*
Y70665D02*
D03*
X4530Y74475D02*
D03*
X7070Y73205D02*
D03*
D63*
Y75805D02*
D03*
D64*
X29700Y10000D02*
D03*
X19500D02*
D03*
X50600D02*
D03*
X40400D02*
D03*
D65*
X22100Y15100D02*
D03*
X43000D02*
D03*
X3260Y50700D02*
D03*
X5800Y48160D02*
D03*
X3260D02*
D03*
X5800Y45620D02*
D03*
X3260D02*
D03*
X5800Y43080D02*
D03*
X3260D02*
D03*
X5800Y40540D02*
D03*
X3260D02*
D03*
X5800Y38000D02*
D03*
X3260D02*
D03*
X5800Y35460D02*
D03*
X3260D02*
D03*
X5800Y32920D02*
D03*
X3260D02*
D03*
X5800Y30380D02*
D03*
X3260D02*
D03*
X5800Y27840D02*
D03*
X3260D02*
D03*
X5800Y25300D02*
D03*
X3260D02*
D03*
X5800Y22760D02*
D03*
X3260D02*
D03*
X5800Y20220D02*
D03*
X3260D02*
D03*
X5800Y17680D02*
D03*
X3260D02*
D03*
X5800Y15140D02*
D03*
X3260D02*
D03*
X5800Y12600D02*
D03*
X3260D02*
D03*
X5800Y10060D02*
D03*
X3260D02*
D03*
X5800Y7520D02*
D03*
X3260D02*
D03*
X5800Y4980D02*
D03*
X3260D02*
D03*
X64200Y50700D02*
D03*
X66740Y48160D02*
D03*
X64200D02*
D03*
X66740Y45620D02*
D03*
X64200D02*
D03*
X66740Y43080D02*
D03*
X64200D02*
D03*
X66740Y40540D02*
D03*
X64200D02*
D03*
X66740Y38000D02*
D03*
X64200D02*
D03*
X66740Y35460D02*
D03*
X64200D02*
D03*
X66740Y32920D02*
D03*
X64200D02*
D03*
X66740Y30380D02*
D03*
X64200D02*
D03*
X66740Y27840D02*
D03*
X64200D02*
D03*
X66740Y25300D02*
D03*
X64200D02*
D03*
X66740Y22760D02*
D03*
X64200D02*
D03*
X66740Y20220D02*
D03*
X64200D02*
D03*
X66740Y17680D02*
D03*
X64200D02*
D03*
X66740Y15140D02*
D03*
X64200D02*
D03*
X66740Y12600D02*
D03*
X64200D02*
D03*
X66740Y10060D02*
D03*
X64200D02*
D03*
X66740Y7520D02*
D03*
X64200D02*
D03*
X66740Y4980D02*
D03*
X64200D02*
D03*
D66*
X24600Y15100D02*
D03*
X45500D02*
D03*
X5800Y50700D02*
D03*
X66740D02*
D03*
D67*
X54000Y92950D02*
D03*
X54700Y95500D02*
D03*
X52100D02*
D03*
X49700D02*
D03*
X47800Y92950D02*
D03*
X47100Y95500D02*
D03*
X63554Y93854D02*
D03*
X62509Y82092D02*
D03*
X30619Y28354D02*
D03*
X31857Y33005D02*
D03*
X50500Y82500D02*
D03*
X34400Y91700D02*
D03*
X34500Y90100D02*
D03*
X29900Y91700D02*
D03*
X30000Y90100D02*
D03*
X33300Y34900D02*
D03*
X47800Y67000D02*
D03*
X49600Y66800D02*
D03*
X49900Y29800D02*
D03*
X45100Y31700D02*
D03*
X62100Y54200D02*
D03*
X55700Y26000D02*
D03*
X40900Y30263D02*
D03*
X37400Y95675D02*
D03*
X47100Y35700D02*
D03*
X55600Y36600D02*
D03*
X53082Y32600D02*
D03*
X35300Y26737D02*
D03*
X58037Y54900D02*
D03*
X49200Y63862D02*
D03*
X41300Y68162D02*
D03*
X23200Y88702D02*
D03*
X56100Y83800D02*
D03*
X54300Y79900D02*
D03*
X17400Y89500D02*
D03*
X22100Y67500D02*
D03*
X21400Y82200D02*
D03*
X15300Y87200D02*
D03*
X27900Y92568D02*
D03*
X32600Y23600D02*
D03*
X39000Y25300D02*
D03*
X37100Y20900D02*
D03*
X38100Y16800D02*
D03*
X45400Y23600D02*
D03*
X45600Y18800D02*
D03*
X24700Y22800D02*
D03*
Y19000D02*
D03*
X14500Y20900D02*
D03*
X16400Y19300D02*
D03*
X16200Y16700D02*
D03*
X46500Y74400D02*
D03*
X47600Y60300D02*
D03*
X47700Y57700D02*
D03*
X45400Y43500D02*
D03*
X18600Y14400D02*
D03*
X57300Y43700D02*
D03*
Y49400D02*
D03*
X57500Y29900D02*
D03*
X57200Y24900D02*
D03*
X57800Y21000D02*
D03*
X52500Y19000D02*
D03*
X35300Y25400D02*
D03*
X35000Y21000D02*
D03*
X31800Y18800D02*
D03*
X11600Y15300D02*
D03*
X11900Y21800D02*
D03*
X11800Y33500D02*
D03*
X12100Y43000D02*
D03*
X12000Y52600D02*
D03*
X17000Y64300D02*
D03*
X12400Y61300D02*
D03*
X42000Y86100D02*
D03*
X37400Y86000D02*
D03*
X24900Y85200D02*
D03*
Y80200D02*
D03*
X25000Y74900D02*
D03*
X33100Y77200D02*
D03*
X31500Y80800D02*
D03*
X35100D02*
D03*
X39900Y80900D02*
D03*
X42000Y76100D02*
D03*
X42200Y72800D02*
D03*
X31000Y68300D02*
D03*
X22500Y65800D02*
D03*
X24600Y61300D02*
D03*
X33400Y58500D02*
D03*
X41100Y57000D02*
D03*
X28500Y47100D02*
D03*
X28300Y52500D02*
D03*
X53600Y67200D02*
D03*
X57100Y61500D02*
D03*
X58200Y66100D02*
D03*
Y68000D02*
D03*
X58300Y70600D02*
D03*
X57200Y74700D02*
D03*
X53900D02*
D03*
X50300D02*
D03*
X58700Y80300D02*
D03*
Y78100D02*
D03*
X68000Y78000D02*
D03*
X67700Y83300D02*
D03*
X67400Y87900D02*
D03*
X57500Y86800D02*
D03*
X58300Y91500D02*
D03*
X54800Y89500D02*
D03*
X46900Y89400D02*
D03*
X46000Y92800D02*
D03*
X38300Y92300D02*
D03*
X22800Y91300D02*
D03*
X19000Y93200D02*
D03*
X13000Y86100D02*
D03*
X11300Y83300D02*
D03*
X11400Y77900D02*
D03*
Y74500D02*
D03*
X32500Y36900D02*
D03*
X26900Y37100D02*
D03*
X35800Y34700D02*
D03*
X38000Y36800D02*
D03*
X45500Y34400D02*
D03*
X58000Y36800D02*
D03*
X43900Y56900D02*
D03*
X63409Y84992D02*
D03*
X61609D02*
D03*
X25550Y27250D02*
D03*
X39950Y25950D02*
D03*
X46450Y27250D02*
D03*
X44500Y25400D02*
D03*
X24600Y34400D02*
D03*
X19400Y41300D02*
D03*
X33000Y43400D02*
D03*
X54100Y50700D02*
D03*
X50900Y50800D02*
D03*
X38300Y50700D02*
D03*
X34600D02*
D03*
X22900D02*
D03*
X20000D02*
D03*
X48500Y40600D02*
D03*
X9100Y63400D02*
D03*
X8703Y56402D02*
D03*
X8820Y57354D02*
D03*
X36400Y69662D02*
D03*
X52200Y61600D02*
D03*
X50889Y60681D02*
D03*
X65800Y58000D02*
D03*
X52800Y70300D02*
D03*
X64137Y54900D02*
D03*
X62100Y53100D02*
D03*
X62025Y57304D02*
D03*
X64700Y59700D02*
D03*
X65200Y60900D02*
D03*
X61912Y55463D02*
D03*
X62010Y58813D02*
D03*
X52275Y69010D02*
D03*
X51673Y70113D02*
D03*
X45591Y69934D02*
D03*
X37957Y65184D02*
D03*
X37577Y60194D02*
D03*
X40200Y59700D02*
D03*
X40100Y58600D02*
D03*
X34100Y36100D02*
D03*
X13500Y36000D02*
D03*
X66400Y90287D02*
D03*
X13500Y34900D02*
D03*
X44300Y90400D02*
D03*
Y89100D02*
D03*
X38500Y95698D02*
D03*
X45747Y66947D02*
D03*
X34400Y69800D02*
D03*
X45075Y66275D02*
D03*
X45548Y68048D02*
D03*
X39600Y70200D02*
D03*
X44404Y65604D02*
D03*
X35700Y68800D02*
D03*
X60700Y73200D02*
D03*
X25272Y70428D02*
D03*
X58800Y74000D02*
D03*
X25100Y72037D02*
D03*
X59800Y73700D02*
D03*
X24600Y71100D02*
D03*
X14000Y32800D02*
D03*
X42700Y43300D02*
D03*
X19900Y88200D02*
D03*
X37600Y83400D02*
D03*
X14763Y67182D02*
D03*
X12000Y70400D02*
D03*
X13580Y65982D02*
D03*
X12000Y69400D02*
D03*
X12499Y67999D02*
D03*
X12900Y65100D02*
D03*
X58400Y13000D02*
D03*
X10072Y70372D02*
D03*
X8700Y55450D02*
D03*
Y54500D02*
D03*
X11415Y71715D02*
D03*
X10744Y71044D02*
D03*
X9400Y69700D02*
D03*
X66249Y60449D02*
D03*
X65653Y59086D02*
D03*
X38700Y68000D02*
D03*
X50800Y89700D02*
D03*
X39800Y68100D02*
D03*
X40700Y70412D02*
D03*
X41700Y64188D02*
D03*
X42235Y65402D02*
D03*
X42800Y64500D02*
D03*
X16900Y71900D02*
D03*
X19600Y76450D02*
D03*
X17900Y69700D02*
D03*
X26200Y81800D02*
D03*
X16900Y74600D02*
D03*
X21000Y81000D02*
D03*
X20700Y75500D02*
D03*
X25500Y91500D02*
D03*
X48000Y84900D02*
D03*
X46400D02*
D03*
X25400Y46900D02*
D03*
X46500Y49700D02*
D03*
X63100Y64488D02*
D03*
X64201Y65199D02*
D03*
X65400Y65300D02*
D03*
X43062Y66000D02*
D03*
X19500Y69700D02*
D03*
X41500Y81800D02*
D03*
X27800Y81400D02*
D03*
X27600Y78900D02*
D03*
X25400Y68300D02*
D03*
X20000Y56100D02*
D03*
X47500Y77200D02*
D03*
X46000D02*
D03*
X52162Y60400D02*
D03*
X18400Y49300D02*
D03*
X24600Y48700D02*
D03*
X15600Y50800D02*
D03*
X39100Y47900D02*
D03*
X40200Y46200D02*
D03*
X19700Y78900D02*
D03*
X46400Y79600D02*
D03*
X45200Y22100D02*
D03*
X20943Y57275D02*
D03*
X21300Y56000D02*
D03*
X32005Y57508D02*
D03*
X21000Y60700D02*
D03*
X20300Y58800D02*
D03*
X21600Y58200D02*
D03*
X34700Y60287D02*
D03*
X31200Y60100D02*
D03*
X22500Y59900D02*
D03*
X33730Y56247D02*
D03*
X28538Y55853D02*
D03*
X34700Y56200D02*
D03*
X33571Y63715D02*
D03*
X50332Y63632D02*
D03*
X33800Y68100D02*
D03*
X33300Y69000D02*
D03*
X32300Y68100D02*
D03*
X32500Y63700D02*
D03*
X31500Y61200D02*
D03*
X29602Y60703D02*
D03*
X53202Y61202D02*
D03*
X29602Y59600D02*
D03*
X29638Y61800D02*
D03*
Y62900D02*
D03*
X53900Y62100D02*
D03*
X54600Y62900D02*
D03*
X29264Y64014D02*
D03*
X27989Y63997D02*
D03*
X29638Y69142D02*
D03*
X48000Y79600D02*
D03*
X28237Y69210D02*
D03*
X42600Y81500D02*
D03*
X29672Y81445D02*
D03*
X28856Y68287D02*
D03*
X29813Y55600D02*
D03*
X20612Y54800D02*
D03*
X41794Y80004D02*
D03*
X29000Y80500D02*
D03*
X28163Y79793D02*
D03*
X28856Y65000D02*
D03*
X28827Y54894D02*
D03*
X41900Y78662D02*
D03*
X42600Y79500D02*
D03*
X27563Y68100D02*
D03*
Y65000D02*
D03*
X27900Y55100D02*
D03*
X21900D02*
D03*
X26913Y59914D02*
D03*
X23400Y58900D02*
D03*
X25301Y58799D02*
D03*
X39300Y50000D02*
D03*
X46300Y50900D02*
D03*
X30200D02*
D03*
X55400Y52000D02*
D03*
X46500D02*
D03*
X40100Y42600D02*
D03*
X34900Y30700D02*
D03*
X42700Y41300D02*
D03*
X48100Y45800D02*
D03*
X56400Y46300D02*
D03*
X14900Y43400D02*
D03*
X33500Y48000D02*
D03*
X48200Y47200D02*
D03*
X49400Y49600D02*
D03*
X33214Y49325D02*
D03*
X46600Y53500D02*
D03*
X44300Y50800D02*
D03*
X24500Y50000D02*
D03*
X24600Y43300D02*
D03*
X27900Y40562D02*
D03*
X48000Y23800D02*
D03*
X27100D02*
D03*
X32900Y25700D02*
D03*
X16600Y22600D02*
D03*
X53700Y24500D02*
D03*
X16100D02*
D03*
X32500Y30600D02*
D03*
X37700Y29500D02*
D03*
X49000Y25400D02*
D03*
X21800Y34900D02*
D03*
X24200Y31700D02*
D03*
X28100Y25400D02*
D03*
X17200Y27800D02*
D03*
X12800Y24100D02*
D03*
X25000Y37300D02*
D03*
X21800Y43300D02*
D03*
Y41300D02*
D03*
X45900Y37300D02*
D03*
X19900Y27900D02*
D03*
%TF.MD5,074dfbb29db852b2081fb0065fa81da6*%
M02*
