%TF.GenerationSoftware,Altium Limited,Altium Designer,20.0.12 (288)*%
G04 Layer_Color=9239281*
%FSLAX43Y43*%
%MOMM*%
%TF.FileFunction,Soldermask,Top*%
%TF.Part,Single*%
G01*
G75*
%TA.AperFunction,ViaPad*%
%ADD60C,0.203*%
%TA.AperFunction,ComponentPad*%
%ADD61C,2.303*%
%ADD62C,1.953*%
%ADD63C,2.703*%
%ADD64C,3.503*%
%ADD65C,1.703*%
%ADD66R,1.703X1.703*%
%TA.AperFunction,ViaPad*%
%ADD67C,1.003*%
%TA.AperFunction,SMDPad,CuDef*%
G04:AMPARAMS|DCode=74|XSize=0.653mm|YSize=1.653mm|CornerRadius=0.151mm|HoleSize=0mm|Usage=FLASHONLY|Rotation=180.000|XOffset=0mm|YOffset=0mm|HoleType=Round|Shape=RoundedRectangle|*
%AMROUNDEDRECTD74*
21,1,0.653,1.351,0,0,180.0*
21,1,0.351,1.653,0,0,180.0*
1,1,0.302,-0.176,0.676*
1,1,0.302,0.176,0.676*
1,1,0.302,0.176,-0.676*
1,1,0.302,-0.176,-0.676*
%
%ADD74ROUNDEDRECTD74*%
%ADD75R,1.003X1.003*%
%ADD76R,0.603X0.453*%
%ADD77R,0.703X3.203*%
%ADD78R,0.559X1.549*%
%ADD79R,1.549X0.559*%
%ADD80R,1.003X1.003*%
%ADD81R,1.453X1.103*%
%ADD82R,1.103X1.453*%
%ADD83R,1.353X1.203*%
%ADD84R,3.503X2.903*%
%ADD85R,1.203X2.903*%
%ADD86R,2.103X2.103*%
%ADD87R,2.003X2.103*%
%ADD88R,0.603X1.553*%
%ADD89R,2.303X1.803*%
%ADD90R,1.203X1.203*%
%ADD91R,1.303X0.803*%
%ADD92O,0.603X0.953*%
%ADD93O,1.553X0.603*%
%ADD94O,0.603X1.553*%
%ADD95R,0.903X0.628*%
%ADD96R,0.628X0.903*%
G04:AMPARAMS|DCode=97|XSize=0.753mm|YSize=1.003mm|CornerRadius=0.151mm|HoleSize=0mm|Usage=FLASHONLY|Rotation=180.000|XOffset=0mm|YOffset=0mm|HoleType=Round|Shape=RoundedRectangle|*
%AMROUNDEDRECTD97*
21,1,0.753,0.701,0,0,180.0*
21,1,0.451,1.003,0,0,180.0*
1,1,0.302,-0.226,0.351*
1,1,0.302,0.226,0.351*
1,1,0.302,0.226,-0.351*
1,1,0.302,-0.226,-0.351*
%
%ADD97ROUNDEDRECTD97*%
%ADD98R,1.603X1.803*%
%ADD99O,2.703X0.903*%
G04:AMPARAMS|DCode=100|XSize=0.753mm|YSize=1.003mm|CornerRadius=0.151mm|HoleSize=0mm|Usage=FLASHONLY|Rotation=270.000|XOffset=0mm|YOffset=0mm|HoleType=Round|Shape=RoundedRectangle|*
%AMROUNDEDRECTD100*
21,1,0.753,0.701,0,0,270.0*
21,1,0.451,1.003,0,0,270.0*
1,1,0.302,-0.351,-0.226*
1,1,0.302,-0.351,0.226*
1,1,0.302,0.351,0.226*
1,1,0.302,0.351,-0.226*
%
%ADD100ROUNDEDRECTD100*%
%ADD101R,1.103X0.903*%
G04:AMPARAMS|DCode=102|XSize=0.803mm|YSize=1.203mm|CornerRadius=0.153mm|HoleSize=0mm|Usage=FLASHONLY|Rotation=90.000|XOffset=0mm|YOffset=0mm|HoleType=Round|Shape=RoundedRectangle|*
%AMROUNDEDRECTD102*
21,1,0.803,0.898,0,0,90.0*
21,1,0.498,1.203,0,0,90.0*
1,1,0.305,0.449,0.249*
1,1,0.305,0.449,-0.249*
1,1,0.305,-0.449,-0.249*
1,1,0.305,-0.449,0.249*
%
%ADD102ROUNDEDRECTD102*%
%ADD103R,1.703X1.603*%
G04:AMPARAMS|DCode=104|XSize=1.453mm|YSize=1.103mm|CornerRadius=0.214mm|HoleSize=0mm|Usage=FLASHONLY|Rotation=270.000|XOffset=0mm|YOffset=0mm|HoleType=Round|Shape=RoundedRectangle|*
%AMROUNDEDRECTD104*
21,1,1.453,0.675,0,0,270.0*
21,1,1.025,1.103,0,0,270.0*
1,1,0.428,-0.338,-0.513*
1,1,0.428,-0.338,0.513*
1,1,0.428,0.338,0.513*
1,1,0.428,0.338,-0.513*
%
%ADD104ROUNDEDRECTD104*%
%ADD105R,3.203X0.703*%
%ADD106R,0.453X0.603*%
D60*
X63000Y91000D02*
D03*
X57000Y9000D02*
D03*
X12000Y91000D02*
D03*
Y9000D02*
D03*
D61*
X4530Y66795D02*
D03*
D62*
Y69395D02*
D03*
Y71935D02*
D03*
X7070Y68125D02*
D03*
Y70665D02*
D03*
X4530Y74475D02*
D03*
X7070Y73205D02*
D03*
D63*
Y75805D02*
D03*
D64*
X29700Y10000D02*
D03*
X19500D02*
D03*
X50600D02*
D03*
X40400D02*
D03*
D65*
X22100Y15100D02*
D03*
X43000D02*
D03*
X3260Y50700D02*
D03*
X5800Y48160D02*
D03*
X3260D02*
D03*
X5800Y45620D02*
D03*
X3260D02*
D03*
X5800Y43080D02*
D03*
X3260D02*
D03*
X5800Y40540D02*
D03*
X3260D02*
D03*
X5800Y38000D02*
D03*
X3260D02*
D03*
X5800Y35460D02*
D03*
X3260D02*
D03*
X5800Y32920D02*
D03*
X3260D02*
D03*
X5800Y30380D02*
D03*
X3260D02*
D03*
X5800Y27840D02*
D03*
X3260D02*
D03*
X5800Y25300D02*
D03*
X3260D02*
D03*
X5800Y22760D02*
D03*
X3260D02*
D03*
X5800Y20220D02*
D03*
X3260D02*
D03*
X5800Y17680D02*
D03*
X3260D02*
D03*
X5800Y15140D02*
D03*
X3260D02*
D03*
X5800Y12600D02*
D03*
X3260D02*
D03*
X5800Y10060D02*
D03*
X3260D02*
D03*
X5800Y7520D02*
D03*
X3260D02*
D03*
X5800Y4980D02*
D03*
X3260D02*
D03*
X64200Y50700D02*
D03*
X66740Y48160D02*
D03*
X64200D02*
D03*
X66740Y45620D02*
D03*
X64200D02*
D03*
X66740Y43080D02*
D03*
X64200D02*
D03*
X66740Y40540D02*
D03*
X64200D02*
D03*
X66740Y38000D02*
D03*
X64200D02*
D03*
X66740Y35460D02*
D03*
X64200D02*
D03*
X66740Y32920D02*
D03*
X64200D02*
D03*
X66740Y30380D02*
D03*
X64200D02*
D03*
X66740Y27840D02*
D03*
X64200D02*
D03*
X66740Y25300D02*
D03*
X64200D02*
D03*
X66740Y22760D02*
D03*
X64200D02*
D03*
X66740Y20220D02*
D03*
X64200D02*
D03*
X66740Y17680D02*
D03*
X64200D02*
D03*
X66740Y15140D02*
D03*
X64200D02*
D03*
X66740Y12600D02*
D03*
X64200D02*
D03*
X66740Y10060D02*
D03*
X64200D02*
D03*
X66740Y7520D02*
D03*
X64200D02*
D03*
X66740Y4980D02*
D03*
X64200D02*
D03*
D66*
X24600Y15100D02*
D03*
X45500D02*
D03*
X5800Y50700D02*
D03*
X66740D02*
D03*
D67*
X54000Y92950D02*
D03*
X54700Y95500D02*
D03*
X52100D02*
D03*
X49700D02*
D03*
X47800Y92950D02*
D03*
X47100Y95500D02*
D03*
X63554Y93854D02*
D03*
X62509Y82092D02*
D03*
X30619Y28354D02*
D03*
X31857Y33005D02*
D03*
X50500Y82500D02*
D03*
X34400Y91700D02*
D03*
X34500Y90100D02*
D03*
X29900Y91700D02*
D03*
X30000Y90100D02*
D03*
X33300Y34900D02*
D03*
X47800Y67000D02*
D03*
X49600Y66800D02*
D03*
X49900Y29800D02*
D03*
X45100Y31700D02*
D03*
X62100Y54200D02*
D03*
X55700Y26000D02*
D03*
X40900Y30263D02*
D03*
X37400Y95675D02*
D03*
X47100Y35700D02*
D03*
X55600Y36600D02*
D03*
X53082Y32600D02*
D03*
X35300Y26737D02*
D03*
X58037Y54900D02*
D03*
X49200Y63862D02*
D03*
X41300Y68162D02*
D03*
X23200Y88702D02*
D03*
X56100Y83800D02*
D03*
X54300Y79900D02*
D03*
X17400Y89500D02*
D03*
X22100Y67500D02*
D03*
X21400Y82200D02*
D03*
X15300Y87200D02*
D03*
X27900Y92568D02*
D03*
X32600Y23600D02*
D03*
X39000Y25300D02*
D03*
X37100Y20900D02*
D03*
X38100Y16800D02*
D03*
X45400Y23600D02*
D03*
X45600Y18800D02*
D03*
X24700Y22800D02*
D03*
Y19000D02*
D03*
X14500Y20900D02*
D03*
X16400Y19300D02*
D03*
X16200Y16700D02*
D03*
X46500Y74400D02*
D03*
X47600Y60300D02*
D03*
X47700Y57700D02*
D03*
X45400Y43500D02*
D03*
X18600Y14400D02*
D03*
X57300Y43700D02*
D03*
Y49400D02*
D03*
X57500Y29900D02*
D03*
X57200Y24900D02*
D03*
X57800Y21000D02*
D03*
X52500Y19000D02*
D03*
X35300Y25400D02*
D03*
X35000Y21000D02*
D03*
X31800Y18800D02*
D03*
X11600Y15300D02*
D03*
X11900Y21800D02*
D03*
X11800Y33500D02*
D03*
X12100Y43000D02*
D03*
X12000Y52600D02*
D03*
X17000Y64300D02*
D03*
X12400Y61300D02*
D03*
X42000Y86100D02*
D03*
X37400Y86000D02*
D03*
X24900Y85200D02*
D03*
Y80200D02*
D03*
X25000Y74900D02*
D03*
X33100Y77200D02*
D03*
X31500Y80800D02*
D03*
X35100D02*
D03*
X39900Y80900D02*
D03*
X42000Y76100D02*
D03*
X42200Y72800D02*
D03*
X31000Y68300D02*
D03*
X22500Y65800D02*
D03*
X24600Y61300D02*
D03*
X33400Y58500D02*
D03*
X41100Y57000D02*
D03*
X28500Y47100D02*
D03*
X28300Y52500D02*
D03*
X53600Y67200D02*
D03*
X57100Y61500D02*
D03*
X58200Y66100D02*
D03*
Y68000D02*
D03*
X58300Y70600D02*
D03*
X57200Y74700D02*
D03*
X53900D02*
D03*
X50300D02*
D03*
X58700Y80300D02*
D03*
Y78100D02*
D03*
X68000Y78000D02*
D03*
X67700Y83300D02*
D03*
X67400Y87900D02*
D03*
X57500Y86800D02*
D03*
X58300Y91500D02*
D03*
X54800Y89500D02*
D03*
X46900Y89400D02*
D03*
X46000Y92800D02*
D03*
X38300Y92300D02*
D03*
X22800Y91300D02*
D03*
X19000Y93200D02*
D03*
X13000Y86100D02*
D03*
X11300Y83300D02*
D03*
X11400Y77900D02*
D03*
Y74500D02*
D03*
X32500Y36900D02*
D03*
X26900Y37100D02*
D03*
X35800Y34700D02*
D03*
X38000Y36800D02*
D03*
X45500Y34400D02*
D03*
X58000Y36800D02*
D03*
X43900Y56900D02*
D03*
X63409Y84992D02*
D03*
X61609D02*
D03*
X25550Y27250D02*
D03*
X39950Y25950D02*
D03*
X46450Y27250D02*
D03*
X44500Y25400D02*
D03*
X24600Y34400D02*
D03*
X19400Y41300D02*
D03*
X33000Y43400D02*
D03*
X54100Y50700D02*
D03*
X50900Y50800D02*
D03*
X38300Y50700D02*
D03*
X34600D02*
D03*
X22900D02*
D03*
X20000D02*
D03*
X48500Y40600D02*
D03*
X9100Y63400D02*
D03*
X8703Y56402D02*
D03*
X8820Y57354D02*
D03*
X36400Y69662D02*
D03*
X52200Y61600D02*
D03*
X50889Y60681D02*
D03*
X65800Y58000D02*
D03*
X52800Y70300D02*
D03*
X64137Y54900D02*
D03*
X62100Y53100D02*
D03*
X62025Y57304D02*
D03*
X64700Y59700D02*
D03*
X65200Y60900D02*
D03*
X61912Y55463D02*
D03*
X62010Y58813D02*
D03*
X52275Y69010D02*
D03*
X51673Y70113D02*
D03*
X45591Y69934D02*
D03*
X37957Y65184D02*
D03*
X37577Y60194D02*
D03*
X40200Y59700D02*
D03*
X40100Y58600D02*
D03*
X34100Y36100D02*
D03*
X13500Y36000D02*
D03*
X66400Y90287D02*
D03*
X13500Y34900D02*
D03*
X44300Y90400D02*
D03*
Y89100D02*
D03*
X38500Y95698D02*
D03*
X45747Y66947D02*
D03*
X34400Y69800D02*
D03*
X45075Y66275D02*
D03*
X45548Y68048D02*
D03*
X39600Y70200D02*
D03*
X44404Y65604D02*
D03*
X35700Y68800D02*
D03*
X60700Y73200D02*
D03*
X25272Y70428D02*
D03*
X58800Y74000D02*
D03*
X25100Y72037D02*
D03*
X59800Y73700D02*
D03*
X24600Y71100D02*
D03*
X14000Y32800D02*
D03*
X42700Y43300D02*
D03*
X19900Y88200D02*
D03*
X37600Y83400D02*
D03*
X14763Y67182D02*
D03*
X12000Y70400D02*
D03*
X13580Y65982D02*
D03*
X12000Y69400D02*
D03*
X12499Y67999D02*
D03*
X12900Y65100D02*
D03*
X58400Y13000D02*
D03*
X10072Y70372D02*
D03*
X8700Y55450D02*
D03*
Y54500D02*
D03*
X11415Y71715D02*
D03*
X10744Y71044D02*
D03*
X9400Y69700D02*
D03*
X66249Y60449D02*
D03*
X65653Y59086D02*
D03*
X38700Y68000D02*
D03*
X50800Y89700D02*
D03*
X39800Y68100D02*
D03*
X40700Y70412D02*
D03*
X41700Y64188D02*
D03*
X42235Y65402D02*
D03*
X42800Y64500D02*
D03*
X16900Y71900D02*
D03*
X19600Y76450D02*
D03*
X17900Y69700D02*
D03*
X26200Y81800D02*
D03*
X16900Y74600D02*
D03*
X21000Y81000D02*
D03*
X20700Y75500D02*
D03*
X25500Y91500D02*
D03*
X48000Y84900D02*
D03*
X46400D02*
D03*
X25400Y46900D02*
D03*
X46500Y49700D02*
D03*
X63100Y64488D02*
D03*
X64201Y65199D02*
D03*
X65400Y65300D02*
D03*
X43062Y66000D02*
D03*
X19500Y69700D02*
D03*
X41500Y81800D02*
D03*
X27800Y81400D02*
D03*
X27600Y78900D02*
D03*
X25400Y68300D02*
D03*
X20000Y56100D02*
D03*
X47500Y77200D02*
D03*
X46000D02*
D03*
X52162Y60400D02*
D03*
X18400Y49300D02*
D03*
X24600Y48700D02*
D03*
X15600Y50800D02*
D03*
X39100Y47900D02*
D03*
X40200Y46200D02*
D03*
X19700Y78900D02*
D03*
X46400Y79600D02*
D03*
X45200Y22100D02*
D03*
X20943Y57275D02*
D03*
X21300Y56000D02*
D03*
X32005Y57508D02*
D03*
X21000Y60700D02*
D03*
X20300Y58800D02*
D03*
X21600Y58200D02*
D03*
X34700Y60287D02*
D03*
X31200Y60100D02*
D03*
X22500Y59900D02*
D03*
X33730Y56247D02*
D03*
X28538Y55853D02*
D03*
X34700Y56200D02*
D03*
X33571Y63715D02*
D03*
X50332Y63632D02*
D03*
X33800Y68100D02*
D03*
X33300Y69000D02*
D03*
X32300Y68100D02*
D03*
X32500Y63700D02*
D03*
X31500Y61200D02*
D03*
X29602Y60703D02*
D03*
X53202Y61202D02*
D03*
X29602Y59600D02*
D03*
X29638Y61800D02*
D03*
Y62900D02*
D03*
X53900Y62100D02*
D03*
X54600Y62900D02*
D03*
X29264Y64014D02*
D03*
X27989Y63997D02*
D03*
X29638Y69142D02*
D03*
X48000Y79600D02*
D03*
X28237Y69210D02*
D03*
X42600Y81500D02*
D03*
X29672Y81445D02*
D03*
X28856Y68287D02*
D03*
X29813Y55600D02*
D03*
X20612Y54800D02*
D03*
X41794Y80004D02*
D03*
X29000Y80500D02*
D03*
X28163Y79793D02*
D03*
X28856Y65000D02*
D03*
X28827Y54894D02*
D03*
X41900Y78662D02*
D03*
X42600Y79500D02*
D03*
X27563Y68100D02*
D03*
Y65000D02*
D03*
X27900Y55100D02*
D03*
X21900D02*
D03*
X26913Y59914D02*
D03*
X23400Y58900D02*
D03*
X25301Y58799D02*
D03*
X39300Y50000D02*
D03*
X46300Y50900D02*
D03*
X30200D02*
D03*
X55400Y52000D02*
D03*
X46500D02*
D03*
X40100Y42600D02*
D03*
X34900Y30700D02*
D03*
X42700Y41300D02*
D03*
X48100Y45800D02*
D03*
X56400Y46300D02*
D03*
X14900Y43400D02*
D03*
X33500Y48000D02*
D03*
X48200Y47200D02*
D03*
X49400Y49600D02*
D03*
X33214Y49325D02*
D03*
X46600Y53500D02*
D03*
X44300Y50800D02*
D03*
X24500Y50000D02*
D03*
X24600Y43300D02*
D03*
X27900Y40562D02*
D03*
X48000Y23800D02*
D03*
X27100D02*
D03*
X32900Y25700D02*
D03*
X16600Y22600D02*
D03*
X53700Y24500D02*
D03*
X16100D02*
D03*
X32500Y30600D02*
D03*
X37700Y29500D02*
D03*
X49000Y25400D02*
D03*
X21800Y34900D02*
D03*
X24200Y31700D02*
D03*
X28100Y25400D02*
D03*
X17200Y27800D02*
D03*
X12800Y24100D02*
D03*
X25000Y37300D02*
D03*
X21800Y43300D02*
D03*
Y41300D02*
D03*
X45900Y37300D02*
D03*
X19900Y27900D02*
D03*
D74*
X49575Y46275D02*
D03*
X50225D02*
D03*
X50875D02*
D03*
X51525D02*
D03*
X52175D02*
D03*
X52825D02*
D03*
X53475D02*
D03*
X54125D02*
D03*
X54775D02*
D03*
X55425D02*
D03*
X49575Y53325D02*
D03*
X50225D02*
D03*
X50875D02*
D03*
X51525D02*
D03*
X52175D02*
D03*
X52825D02*
D03*
X53475D02*
D03*
X54125D02*
D03*
X54775D02*
D03*
X55425D02*
D03*
X33425Y46275D02*
D03*
X34075D02*
D03*
X34725D02*
D03*
X35375D02*
D03*
X36025D02*
D03*
X36675D02*
D03*
X37325D02*
D03*
X37975D02*
D03*
X38625D02*
D03*
X39275D02*
D03*
X33425Y53325D02*
D03*
X34075D02*
D03*
X34725D02*
D03*
X35375D02*
D03*
X36025D02*
D03*
X36675D02*
D03*
X37325D02*
D03*
X37975D02*
D03*
X38625D02*
D03*
X39275D02*
D03*
X18675Y46275D02*
D03*
X19325D02*
D03*
X19975D02*
D03*
X20625D02*
D03*
X21275D02*
D03*
X21925D02*
D03*
X22575D02*
D03*
X23225D02*
D03*
X23875D02*
D03*
X24525D02*
D03*
X18675Y53325D02*
D03*
X19325D02*
D03*
X19975D02*
D03*
X20625D02*
D03*
X21275D02*
D03*
X21925D02*
D03*
X22575D02*
D03*
X23225D02*
D03*
X23875D02*
D03*
X24525D02*
D03*
D75*
X19600Y70700D02*
D03*
X18000D02*
D03*
X17901Y68597D02*
D03*
X19501D02*
D03*
X46399Y86003D02*
D03*
X47999D02*
D03*
X46399Y80803D02*
D03*
X47999D02*
D03*
X45999Y76103D02*
D03*
X47599D02*
D03*
X48500Y70000D02*
D03*
X46900D02*
D03*
X37101Y56997D02*
D03*
X35501D02*
D03*
X35599Y64303D02*
D03*
X37199D02*
D03*
X32599Y64703D02*
D03*
X34199D02*
D03*
X19601Y73797D02*
D03*
X18001D02*
D03*
X51899Y35603D02*
D03*
X53499D02*
D03*
X45101Y53497D02*
D03*
X43501D02*
D03*
X18400Y35900D02*
D03*
X16800D02*
D03*
X54499Y27803D02*
D03*
X52899D02*
D03*
X39600Y35600D02*
D03*
X38000D02*
D03*
X46901Y28597D02*
D03*
X45301D02*
D03*
X43501D02*
D03*
X41901D02*
D03*
X48956Y28629D02*
D03*
X50556D02*
D03*
X33599Y27803D02*
D03*
X31999D02*
D03*
X30899Y35603D02*
D03*
X32499D02*
D03*
X39601Y30897D02*
D03*
X38001D02*
D03*
X39601Y32397D02*
D03*
X38001D02*
D03*
X39601Y33897D02*
D03*
X38001D02*
D03*
X18401Y34297D02*
D03*
X16801D02*
D03*
X18401Y32797D02*
D03*
X16801D02*
D03*
X18401Y31197D02*
D03*
X16801D02*
D03*
X16400Y29200D02*
D03*
X14800D02*
D03*
X27999Y28629D02*
D03*
X29599D02*
D03*
X26001Y28597D02*
D03*
X24401D02*
D03*
X22601Y28597D02*
D03*
X21001D02*
D03*
X18000Y20200D02*
D03*
X19600D02*
D03*
X40500D02*
D03*
X38900D02*
D03*
Y23500D02*
D03*
X40500D02*
D03*
X40501Y18497D02*
D03*
X38901D02*
D03*
X19601D02*
D03*
X18001D02*
D03*
X38900Y21900D02*
D03*
X40500D02*
D03*
X18000Y23500D02*
D03*
X19600D02*
D03*
X18000Y21900D02*
D03*
X19600D02*
D03*
X15400Y44700D02*
D03*
X17000D02*
D03*
X59801Y76497D02*
D03*
X61401D02*
D03*
X18000Y72300D02*
D03*
X19600D02*
D03*
X18101Y79997D02*
D03*
X19701D02*
D03*
X48499Y68303D02*
D03*
X46899D02*
D03*
X18001Y75297D02*
D03*
X19601D02*
D03*
D76*
X11975Y63400D02*
D03*
Y63800D02*
D03*
Y64200D02*
D03*
Y64600D02*
D03*
Y65000D02*
D03*
Y65400D02*
D03*
Y65800D02*
D03*
Y66200D02*
D03*
X10825Y63400D02*
D03*
Y63800D02*
D03*
Y64200D02*
D03*
Y64600D02*
D03*
Y65000D02*
D03*
Y65400D02*
D03*
Y65800D02*
D03*
Y66200D02*
D03*
X63525Y58700D02*
D03*
Y58300D02*
D03*
Y57900D02*
D03*
Y57500D02*
D03*
Y57100D02*
D03*
Y56700D02*
D03*
Y56300D02*
D03*
Y55900D02*
D03*
X64675Y58700D02*
D03*
Y58300D02*
D03*
Y57900D02*
D03*
Y57500D02*
D03*
Y57100D02*
D03*
Y56700D02*
D03*
Y56300D02*
D03*
Y55900D02*
D03*
D77*
X11400Y64800D02*
D03*
X64100Y57300D02*
D03*
D78*
X24775Y66625D02*
D03*
X25275D02*
D03*
X25775D02*
D03*
X26275D02*
D03*
X26775D02*
D03*
X27275D02*
D03*
X27775D02*
D03*
X28275D02*
D03*
X28775D02*
D03*
X29275D02*
D03*
X29775D02*
D03*
X30275D02*
D03*
X30775D02*
D03*
X31275D02*
D03*
X31775D02*
D03*
X32275D02*
D03*
X32775D02*
D03*
X33275D02*
D03*
X33775D02*
D03*
X34275D02*
D03*
X34775D02*
D03*
X35275D02*
D03*
X35775D02*
D03*
X36275D02*
D03*
X36775D02*
D03*
X37275D02*
D03*
X37775D02*
D03*
X38275D02*
D03*
X38775D02*
D03*
X39275D02*
D03*
X39775D02*
D03*
X40275D02*
D03*
X40775D02*
D03*
X41275D02*
D03*
X41775D02*
D03*
X42275D02*
D03*
Y87875D02*
D03*
X41775D02*
D03*
X41275D02*
D03*
X40775D02*
D03*
X40275D02*
D03*
X39775D02*
D03*
X39275D02*
D03*
X38775D02*
D03*
X38275D02*
D03*
X37775D02*
D03*
X37275D02*
D03*
X36775D02*
D03*
X36275D02*
D03*
X35775D02*
D03*
X35275D02*
D03*
X34775D02*
D03*
X34275D02*
D03*
X33775D02*
D03*
X33275D02*
D03*
X32775D02*
D03*
X32275D02*
D03*
X31775D02*
D03*
X31275D02*
D03*
X30775D02*
D03*
X30275D02*
D03*
X29775D02*
D03*
X29275D02*
D03*
X28775D02*
D03*
X28275D02*
D03*
X27775D02*
D03*
X27275D02*
D03*
X26775D02*
D03*
X26275D02*
D03*
X25775D02*
D03*
X25275D02*
D03*
X24775D02*
D03*
D79*
X44150Y68500D02*
D03*
Y69000D02*
D03*
Y69500D02*
D03*
Y70000D02*
D03*
Y70500D02*
D03*
Y71000D02*
D03*
Y71500D02*
D03*
Y72000D02*
D03*
Y72500D02*
D03*
Y73000D02*
D03*
Y73500D02*
D03*
Y74000D02*
D03*
Y74500D02*
D03*
Y75000D02*
D03*
Y75500D02*
D03*
Y76000D02*
D03*
Y76500D02*
D03*
Y77000D02*
D03*
Y77500D02*
D03*
Y78000D02*
D03*
Y78500D02*
D03*
Y79000D02*
D03*
Y79500D02*
D03*
Y80000D02*
D03*
Y80500D02*
D03*
Y81000D02*
D03*
Y81500D02*
D03*
Y82000D02*
D03*
Y82500D02*
D03*
Y83000D02*
D03*
Y83500D02*
D03*
Y84000D02*
D03*
Y84500D02*
D03*
Y85000D02*
D03*
Y85500D02*
D03*
Y86000D02*
D03*
X22900D02*
D03*
Y85500D02*
D03*
Y85000D02*
D03*
Y84500D02*
D03*
Y84000D02*
D03*
Y83500D02*
D03*
Y83000D02*
D03*
Y82500D02*
D03*
Y82000D02*
D03*
Y81500D02*
D03*
Y81000D02*
D03*
Y80500D02*
D03*
Y80000D02*
D03*
Y79500D02*
D03*
Y79000D02*
D03*
Y78500D02*
D03*
Y78000D02*
D03*
Y77500D02*
D03*
Y77000D02*
D03*
Y76500D02*
D03*
Y76000D02*
D03*
Y75500D02*
D03*
Y75000D02*
D03*
Y74500D02*
D03*
Y74000D02*
D03*
Y73500D02*
D03*
Y73000D02*
D03*
Y72500D02*
D03*
Y72000D02*
D03*
Y71500D02*
D03*
Y70000D02*
D03*
Y69500D02*
D03*
Y69000D02*
D03*
Y68500D02*
D03*
Y71000D02*
D03*
Y70500D02*
D03*
D80*
X20203Y91501D02*
D03*
Y89901D02*
D03*
X31297Y90099D02*
D03*
Y91699D02*
D03*
X28727Y90141D02*
D03*
Y91741D02*
D03*
X41300Y91100D02*
D03*
Y92700D02*
D03*
X24597Y40499D02*
D03*
Y42099D02*
D03*
Y90099D02*
D03*
Y91699D02*
D03*
X44600Y92900D02*
D03*
Y94500D02*
D03*
X46800Y47700D02*
D03*
Y46100D02*
D03*
X45497Y40499D02*
D03*
Y42099D02*
D03*
X41700Y47700D02*
D03*
Y46100D02*
D03*
X45100Y47700D02*
D03*
Y46100D02*
D03*
X43400Y47700D02*
D03*
Y46100D02*
D03*
X42303Y62801D02*
D03*
Y61201D02*
D03*
X40803Y62801D02*
D03*
Y61201D02*
D03*
X39403Y62801D02*
D03*
Y61201D02*
D03*
X47703Y50501D02*
D03*
Y48901D02*
D03*
X31503Y50501D02*
D03*
Y48901D02*
D03*
X16803Y50501D02*
D03*
Y48901D02*
D03*
X31400Y23100D02*
D03*
Y24700D02*
D03*
X50500D02*
D03*
Y23100D02*
D03*
X29500Y24700D02*
D03*
Y23100D02*
D03*
X52300Y24700D02*
D03*
Y23100D02*
D03*
X35797Y91699D02*
D03*
Y90099D02*
D03*
X43900Y59800D02*
D03*
Y58200D02*
D03*
D81*
X26400Y92502D02*
D03*
Y90182D02*
D03*
X39500Y91140D02*
D03*
Y93460D02*
D03*
X26400Y40640D02*
D03*
Y42960D02*
D03*
X47400Y40640D02*
D03*
Y42960D02*
D03*
X12800Y29160D02*
D03*
Y26840D02*
D03*
D82*
X48802Y83200D02*
D03*
X46482D02*
D03*
X51940Y33800D02*
D03*
X54260D02*
D03*
X49040Y26700D02*
D03*
X51360D02*
D03*
X31000Y33800D02*
D03*
X33320D02*
D03*
X28040Y26700D02*
D03*
X30360D02*
D03*
X63240Y76200D02*
D03*
X65560D02*
D03*
D83*
X20625Y42300D02*
D03*
X22975D02*
D03*
X56075Y90500D02*
D03*
X53725D02*
D03*
X41525Y42300D02*
D03*
X43875D02*
D03*
X54925Y82500D02*
D03*
X57275D02*
D03*
D84*
X62500Y85050D02*
D03*
D85*
X64800Y79150D02*
D03*
X62500D02*
D03*
X60200D02*
D03*
D86*
X49700Y95500D02*
D03*
X52100D02*
D03*
D87*
X47100D02*
D03*
X54700D02*
D03*
D88*
X50900Y92825D02*
D03*
X51550D02*
D03*
X52200D02*
D03*
X50250D02*
D03*
X49600D02*
D03*
D89*
X54000Y92950D02*
D03*
X47800D02*
D03*
D90*
X56000Y88400D02*
D03*
X53800D02*
D03*
D91*
X48250Y89000D02*
D03*
X45550D02*
D03*
Y90000D02*
D03*
X48250D02*
D03*
D92*
X49889Y88268D02*
D03*
X50839D02*
D03*
X51789D02*
D03*
X49889Y90868D02*
D03*
X50839D02*
D03*
X51789D02*
D03*
D93*
X41350Y31700D02*
D03*
Y32500D02*
D03*
Y33300D02*
D03*
Y34100D02*
D03*
Y34900D02*
D03*
Y35700D02*
D03*
Y36500D02*
D03*
Y37300D02*
D03*
X49650D02*
D03*
Y36500D02*
D03*
Y35700D02*
D03*
Y34900D02*
D03*
Y34100D02*
D03*
Y33300D02*
D03*
Y32500D02*
D03*
Y31700D02*
D03*
X20450D02*
D03*
Y32500D02*
D03*
Y33300D02*
D03*
Y34100D02*
D03*
Y34900D02*
D03*
Y35700D02*
D03*
Y36500D02*
D03*
Y37300D02*
D03*
X28750D02*
D03*
Y36500D02*
D03*
Y35700D02*
D03*
Y34900D02*
D03*
Y34100D02*
D03*
Y33300D02*
D03*
Y32500D02*
D03*
Y31700D02*
D03*
D94*
X42700Y38650D02*
D03*
X43500D02*
D03*
X44300D02*
D03*
X45100D02*
D03*
X45900D02*
D03*
X46700D02*
D03*
X47500D02*
D03*
X48300D02*
D03*
Y30350D02*
D03*
X47500D02*
D03*
X46700D02*
D03*
X45900D02*
D03*
X45100D02*
D03*
X44300D02*
D03*
X43500D02*
D03*
X42700D02*
D03*
X21800Y38650D02*
D03*
X22600D02*
D03*
X23400D02*
D03*
X24200D02*
D03*
X25000D02*
D03*
X25800D02*
D03*
X26600D02*
D03*
X27400D02*
D03*
Y30350D02*
D03*
X26600D02*
D03*
X25800D02*
D03*
X25000D02*
D03*
X24200D02*
D03*
X23400D02*
D03*
X22600D02*
D03*
X21800D02*
D03*
D95*
X18350Y40300D02*
D03*
Y39500D02*
D03*
Y38700D02*
D03*
Y37900D02*
D03*
X16850D02*
D03*
Y38700D02*
D03*
Y39500D02*
D03*
Y40300D02*
D03*
X33450Y37900D02*
D03*
Y38700D02*
D03*
Y39500D02*
D03*
Y40300D02*
D03*
X34950D02*
D03*
Y39500D02*
D03*
Y38700D02*
D03*
Y37900D02*
D03*
X54350D02*
D03*
Y38700D02*
D03*
Y39500D02*
D03*
Y40300D02*
D03*
X55850D02*
D03*
Y39500D02*
D03*
Y38700D02*
D03*
Y37900D02*
D03*
X39250Y40300D02*
D03*
Y39500D02*
D03*
Y38700D02*
D03*
Y37900D02*
D03*
X37750D02*
D03*
Y38700D02*
D03*
Y39500D02*
D03*
Y40300D02*
D03*
D96*
X31400Y41650D02*
D03*
X30600D02*
D03*
X29800D02*
D03*
X29000D02*
D03*
Y43150D02*
D03*
X29800D02*
D03*
X30600D02*
D03*
X31400D02*
D03*
X52300Y41650D02*
D03*
X51500D02*
D03*
X50700D02*
D03*
X49900D02*
D03*
Y43150D02*
D03*
X50700D02*
D03*
X51500D02*
D03*
X52300D02*
D03*
D97*
X43350Y51975D02*
D03*
X45250D02*
D03*
Y49425D02*
D03*
X44300D02*
D03*
X43350D02*
D03*
D98*
X37450Y58700D02*
D03*
Y62500D02*
D03*
X35150D02*
D03*
Y58700D02*
D03*
D99*
X43050Y22705D02*
D03*
Y21435D02*
D03*
Y20165D02*
D03*
Y18895D02*
D03*
X47950Y22705D02*
D03*
Y21435D02*
D03*
Y20165D02*
D03*
Y18895D02*
D03*
X22150Y22705D02*
D03*
Y21435D02*
D03*
Y20165D02*
D03*
Y18895D02*
D03*
X27050Y22705D02*
D03*
Y21435D02*
D03*
Y20165D02*
D03*
Y18895D02*
D03*
D100*
X54675Y29650D02*
D03*
Y30600D02*
D03*
Y31550D02*
D03*
X52125D02*
D03*
Y29650D02*
D03*
X33775D02*
D03*
Y30600D02*
D03*
Y31550D02*
D03*
X31225D02*
D03*
Y29650D02*
D03*
D101*
X43750Y26600D02*
D03*
X41850Y25950D02*
D03*
Y27250D02*
D03*
X45250Y26600D02*
D03*
X47150Y27250D02*
D03*
Y25950D02*
D03*
X24350Y26600D02*
D03*
X26250Y27250D02*
D03*
Y25950D02*
D03*
X22850Y26600D02*
D03*
X20950Y25950D02*
D03*
Y27250D02*
D03*
D102*
X17100Y26400D02*
D03*
X14700Y25450D02*
D03*
Y27350D02*
D03*
D103*
X57400Y93300D02*
D03*
Y95300D02*
D03*
D104*
X16500Y87200D02*
D03*
X18300D02*
D03*
X16500Y91700D02*
D03*
X18300D02*
D03*
D105*
X60800Y13000D02*
D03*
D106*
X59400Y12425D02*
D03*
X59800D02*
D03*
X60200D02*
D03*
X60600D02*
D03*
X61000D02*
D03*
X61400D02*
D03*
X61800D02*
D03*
X62200D02*
D03*
X59400Y13575D02*
D03*
X59800D02*
D03*
X60200D02*
D03*
X60600D02*
D03*
X61000D02*
D03*
X61400D02*
D03*
X61800D02*
D03*
X62200D02*
D03*
%TF.MD5,574c4691a5eb1ce0b1d55ffef98f3749*%
M02*
